EmoRy Coding Club master document
…
df <- df_full[df_full$id<1000000,]
df

## # A tibble: 2,177 x 16
##       id name  host_id host_name neighbourhood_g… neighbourhood latitude
##    <dbl> <chr>   <dbl> <chr>     <chr>            <chr>            <dbl>
##  1  2539 Clea…    2787 John      Brooklyn         Kensington        40.6
##  2  2595 Skyl…    2845 Jennifer  Manhattan        Midtown           40.8
##  3  3647 THE …    4632 Elisabeth Manhattan        Harlem            40.8
##  4  3831 Cozy…    4869 LisaRoxa… Brooklyn         Clinton Hill      40.7
##  5  4989 Grea…    7118 New-York… Manhattan        Hell's Kitch…     40.8
##  6  5022 Enti…    7192 Laura     Manhattan        East Harlem       40.8
##  7  5099 Larg…    7322 Chris     Manhattan        Murray Hill       40.7
##  8  5121 Blis…    7356 Garon     Brooklyn         Bedford-Stuy…     40.7
##  9  5178 Larg…    8967 Shunichi  Manhattan        Hell's Kitch…     40.8
## 10  5203 Cozy…    7490 MaryEllen Manhattan        Upper West S…     40.8
## # … with 2,167 more rows, and 9 more variables: longitude <dbl>,
## #   room_type <chr>, price <dbl>, minimum_nights <dbl>,
## #   number_of_reviews <dbl>, last_review <date>, reviews_per_month <dbl>,
## #   calculated_host_listings_count <dbl>, availability_365 <dbl>
…
